----------------------------------------------------------------
<<<<<<< HEAD
Sat May 23 13:03:38 AEST 2015:
Booting Derby version The Apache Software Foundation - Apache Derby - 10.8.2.2 - (1181258): instance a816c00e-014d-7eb9-d860-000006a317e8 
on database directory /Users/renazhou/final-repository/Hotel Application/hotelDB  with class loader sun.misc.Launcher$AppClassLoader@55f96302 
Loaded from file:/Users/renazhou/final-repository/Hotel%20Application/dist/run1303965020/lib/derby.jar
=======
<<<<<<< HEAD
Sat May 23 12:27:04 EST 2015:
Booting Derby version The Apache Software Foundation - Apache Derby - 10.8.2.2 - (1181258): instance a816c00e-014d-7e98-5e48-00000405b948 
on database directory /Users/Tranny/final-repository/Hotel Application/hotelDB  with class loader sun.misc.Launcher$AppClassLoader@6bc7c054 
Loaded from file:/Users/Tranny/final-repository/Hotel%20Application/dist/run679092477/lib/derby.jar
=======
<<<<<<< HEAD
Sat May 23 12:43:34 AEST 2015:
Booting Derby version The Apache Software Foundation - Apache Derby - 10.8.2.2 - (1181258): instance a816c00e-014d-7ea7-7857-000006a18388 
on database directory /Users/renazhou/final-repository/Hotel Application/hotelDB  with class loader sun.misc.Launcher$AppClassLoader@55f96302 
Loaded from file:/Users/renazhou/final-repository/Hotel%20Application/dist/run573098599/lib/derby.jar
=======
<<<<<<< HEAD
Fri May 22 22:38:09 EST 2015:
Booting Derby version The Apache Software Foundation - Apache Derby - 10.8.2.2 - (1181258): instance a816c00e-014d-7ba1-784f-000004051e18 
on database directory /Users/Tranny/final-repository/Hotel Application/hotelDB  with class loader sun.misc.Launcher$AppClassLoader@6bc7c054 
Loaded from file:/Users/Tranny/final-repository/Hotel%20Application/dist/run18731483/lib/derby.jar
=======
Fri May 22 10:25:10 AEST 2015:
Booting Derby version The Apache Software Foundation - Apache Derby - 10.8.2.2 - (1181258): instance a816c00e-014d-7902-6689-0000069a9478 
on database directory /Users/renazhou/final-repository/Hotel Application/hotelDB  with class loader sun.misc.Launcher$AppClassLoader@55f96302 
Loaded from file:/Users/renazhou/final-repository/Hotel%20Application/dist/run370416356/lib/derby.jar
>>>>>>> c0c82602c8c14703fcba658ed9a06c1546c559e4
>>>>>>> 6e79408d816c35d505fefa923f2974dfb8ca9640
>>>>>>> 358cde4435fc6f1fb0bbcbe091f6286f0b0cb717
>>>>>>> 96494b5f7305421c159e8f3a8b5ffc42a46cfbd2
java.vendor=Oracle Corporation
java.runtime.version=1.8.0-b132
user.dir=/Users/Tranny/final-repository/Hotel Application
derby.system.home=null
Database Class Loader started - derby.database.classpath=''
